<?xml version="1.0" encoding="UTF-8"?>
<svg width="1300px" height="4750px" viewBox="0 0 1300 4750" version="1.1" xmlns="http://www.w3.org/2000/svg" xmlns:xlink="http://www.w3.org/1999/xlink">
    <g id="Home-Desktop" stroke="none" stroke-width="1" fill="none" fill-rule="evenodd">
        <rect fill="" x="0" y="0" width="1300" height="4750"></rect>
        <g id="BG" opacity="0.253766741" transform="translate(-1135.277919, -1586.000000)" fill="#98989B">
            <path d="M2973.00786,4150.41336 C2902.80326,4281.95726 2799.21927,4374.2761 2658.61684,4421.94789 C2466.11776,4487.22108 2268.99741,4499.40047 2072.79487,4444.71386 C1801.17069,4368.98281 1656.46226,4175.59269 1602.48845,3908.09651 C1557.86989,3687.00109 1626.39988,3483.42662 1714.15563,3285.96597 C1837.43234,3008.62331 2039.67311,2797.80877 2287.17654,2627.28117 C2326.99672,2599.84937 2365.64145,2585.16009 2412.44988,2616.21191 C2619.55346,2753.61221 2809.15419,2907.37505 2939.40304,3125.31703 C3044.93537,3301.89411 3076.1732,3494.67285 3082.82332,3662.22398 C3084.41741,3855.88761 3049.2185,4007.62324 2973.00786,4150.41336 M3001.71768,3085.65757 C2863.77208,2894.00507 2678.18074,2751.37584 2488.86985,2613.92727 C2462.3821,2594.70088 2439.79103,2570.10076 2416.24995,2548.75062 C2426.58742,2532.05021 2429.37306,2523.74827 2435.12146,2519.00201 C2455.73199,2501.96373 2476.80947,2485.32767 2498.67595,2469.93047 C2749.6413,2293.14423 2963.02464,2081.50916 3111.2272,1809.68503 C3177.26139,1688.56682 3223.28082,1560.69123 3235.96918,1422.32559 C3250.60587,1262.83505 3222.84607,1112.67615 3134.68777,976.707777 C3125.9283,963.209083 3109.21445,954.874966 3090.8582,939.735191 C3078.07323,963.386062 3069.70021,978.895885 3061.39159,994.276996 C3041.76329,985.283229 3022.2799,976.369908 2989.6734,961.423201 C3007.19235,994.357441 3016.67641,1013.06898 3026.96557,1031.34612 C3123.69012,1203.37 3151.72366,1383.77628 3087.5734,1572.96716 C3056.70592,1664.04714 3026.16047,1756.43034 2982.99108,1841.94353 C2849.34471,2106.70457 2644.96237,2308.84712 2401.9997,2474.61238 C2367.34826,2498.26325 2333.71124,2502.39813 2298.36741,2475.65816 C2118.62109,2339.62543 1940.30784,2202.61127 1803.03852,2019.95253 C1645.93157,1810.90779 1564.03694,1579.2097 1578.12617,1316.05756 C1579.06008,1298.89056 1574.45492,1281.41788 1570.96079,1251.84625 C1548.9977,1278.21616 1535.64916,1294.27301 1515.89204,1318.00433 C1508.72666,1251.42793 1483.7042,1196.40346 1519.6277,1136.18222 C1542.10605,1155.93955 1558.44956,1173.99144 1578.46431,1185.99385 C1585.7746,1190.37007 1601.73166,1180.37878 1613.74373,1176.95182 C1609.54112,1170.48403 1605.3546,1164.01624 1601.16809,1157.54845 C1547.90276,1060.35463 1548.45023,1035.85104 1610.97419,972.460274 C1631.13386,983.191656 1653.17746,995.596296 1675.83294,1006.77817 C1699.30961,1018.36227 1723.38206,1028.75578 1747.18078,1039.64806 C1762.47765,1041.86834 1777.77453,1044.07254 1793.0714,1046.26065 C1794.53668,1042.14185 1796.03416,1038.00697 1797.51555,1033.87209 C1782.29918,1020.5182 1767.05061,1007.1804 1751.83425,993.842592 C1727.16603,955.840308 1701.72491,918.336784 1678.02281,879.739205 C1651.29353,836.218384 1549.97992,775.86844 1510.14364,788.771841 C1437.12119,812.406623 1363.96993,837.875554 1295.10179,871.276377 C1248.93744,893.688393 1210.84017,931.674588 1194.64158,997.913116 C1243.20513,971.157063 1279.43457,949.726477 1316.95217,930.870137 C1364.00213,907.235354 1411.79279,909.906133 1453.96386,940.716622 C1497.6163,972.621164 1491.62637,1020.64691 1483.6881,1066.03406 C1477.73037,1100.17498 1461.85382,1133.15749 1459.63175,1167.26623 C1438.23223,1494.48488 1505.47407,1794.85094 1725.3304,2050.85956 C1869.68459,2218.97381 2038.83581,2358.24044 2215.32953,2489.94522 C2239.77233,2508.158 2263.28121,2527.59355 2293.02155,2551.01917 C2204.28358,2626.31582 2121.64826,2690.141 2046.37153,2761.68891 C1898.95797,2901.82434 1744.8621,3037.06871 1613.32508,3191.18551 C1443.62639,3390.02981 1346.99845,3625.66971 1364.08264,3893.69683 C1379.92699,4142.15969 1458.4402,4361.88755 1687.41026,4497.26063 C1749.37065,4533.87926 1814.2455,4568.39022 1881.92209,4592.025 C2261.78373,4724.7434 2629.60109,4710.03802 2977.3715,4490.68022 C3160.19329,4375.37015 3254.9051,4207.33634 3277.65719,3994.01192 C3314.19256,3651.70176 3196.37443,3356.11414 3001.71768,3085.65757" id="Fill-3"></path>
        </g>
    </g>
</svg>
